main.c:79:5:main	32	static,ignoring_inline_asm
main.c:143:6:SystemClock_Config	88	static
main.c:184:6:Switch_priority	40	static
main.c:237:13:LED1_handler	16	static
main.c:247:13:LED2_handler	16	static
main.c:257:13:LED3_handler	16	static
main.c:268:13:button_interrupt_handler	8	static
main.c:286:6:HAL_TIM_PeriodElapsedCallback	16	static
main.c:303:6:Error_Handler	4	static,ignoring_inline_asm
