led_effect.c:12:6:led_effect_stop	24	static
led_effect.c:21:6:led_effect	32	static
led_effect.c:28:6:led_effect1	8	static
led_effect.c:50:6:led_effect2	8	static
led_effect.c:72:6:led_effect3	8	static
led_effect.c:111:6:led_effect4	8	static
