main.c:88:5:main	24	static
main.c:157:6:SystemClock_Config	88	static
main.c:194:6:vManagerTask	32	static,ignoring_inline_asm
main.c:230:6:EmployeeDoWork	24	static
main.c:241:13:vEmployeeTask	32	static
main.c:277:6:Error_Handler	4	static,ignoring_inline_asm
